sub1/isim.log
ISim log file
Running: D:\Dropbox\Codespace\PMIPS\sub1\testbench5_isim_beh.exe -intstyle ise -gui -tclbatch isim.cmd -wdb D:/Dropbox/Codespace/PMIPS/sub1/testbench5_isim_beh.wdb 
ISim P.68d (signature 0x7708f090)
WARNING: A WEBPACK license was found.
WARNING: Please use Xilinx License Configuration Manager to check out a full ISim license.
WARNING: ISim will run in Lite mode. Please refer to the ISim documentation for more information on the differences between the Lite and the Full version.
This is a Lite version of ISim.
WARNING: File "D:/Dropbox/Codespace/PMIPS/Temp/PMIPSL0.V" Line 137.  For instance comp/hzc/, width 1 of formal port EXMEMRegDst is not equal to width 2 of actual variable EXMEMRegDst. 
WARNING: File "D:/Dropbox/Codespace/PMIPS/Temp/PMIPSL0.V" Line 105.  For instance comp/hzc/, width 1 of formal port IDEXRegDst is not equal to width 2 of actual variable IDEXRegDst. 
WARNING: File "D:/Dropbox/Codespace/PMIPS/Temp/PMIPSL0.V" Line 148.  For instance comp/RegDstMux/, width 1 of formal port select is not equal to width 2 of actual variable MEMWBRegDst. 
Time resolution is 1 ps
# onerror resume
# wave add /
# run 1000 ns
Simulator is doing circuit initialization process.

IO[display,switch0,switch1]

IMEM[PC,Instr]

DMEM[address, rdata, wdata]

ALU[result]

Signals[clock,reset,time]
Finished circuit initialization process.
IMEM[    x,xxxxxxxxxxxxxxxx] DMEM[    x,    0,    x] ALU[    x] Signals[0,1,0], PCSrc:[x], PCStall:[1], Flush: 0, IFID:xxxxxxxxxxxxxxxx, IDEX: xxxxxxxxxxxxxxxx, EXMEM:xxxxxxxxxxxxxxxx, Write:x, DATA:xxxxxxxxxxxxxxxx, wdata:    x, Predict Stage: 0, WriteData:     x, WriteRegister: x, Branch:    x
IMEM[    0,0110000100000011] DMEM[    x,    0,    0] ALU[    0] Signals[1,1,1], PCSrc:[0], PCStall:[1], Flush: 0, IFID:0000000000000000, IDEX: 0000000000000000, EXMEM:0000000000000000, Write:0, DATA:0000000000000000, wdata:    x, Predict Stage: 0, WriteData:     x, WriteRegister: x, Branch:    x
IMEM[    0,0110000100000011] DMEM[    x,    0,    0] ALU[    0] Signals[0,0,2], PCSrc:[0], PCStall:[0], Flush: 0, IFID:0000000000000000, IDEX: 0000000000000000, EXMEM:0000000000000000, Write:0, DATA:0000000000000000, wdata:    x, Predict Stage: 0, WriteData:     x, WriteRegister: x, Branch:    x
IMEM[    2,0110001010100000] DMEM[    0,    0,    0] ALU[    0] Signals[1,0,3], PCSrc:[0], PCStall:[0], Flush: 0, IFID:0110000100000011, IDEX: 0000000000000000, EXMEM:0000000000000000, Write:0, DATA:0000000000000000, wdata:    0, Predict Stage: 0, WriteData:     x, WriteRegister: 0, Branch:    x
IMEM[    2,0110001010100000] DMEM[    0,    0,    0] ALU[    0] Signals[0,0,4], PCSrc:[0], PCStall:[0], Flush: 0, IFID:0110000100000011, IDEX: 0000000000000000, EXMEM:0000000000000000, Write:0, DATA:0000000000000000, wdata:    0, Predict Stage: 0, WriteData:     x, WriteRegister: 0, Branch:    x
IMEM[    4,1101010100100010] DMEM[    0,    0,    0] ALU[    3] Signals[1,0,5], PCSrc:[0], PCStall:[0], Flush: 0, IFID:0110001010100000, IDEX: 0110000100000011, EXMEM:0000000000000000, Write:0, DATA:0000000000000000, wdata:    0, Predict Stage: 0, WriteData:     0, WriteRegister: 0, Branch:    0
IMEM[    4,1101010100100010] DMEM[    0,    0,    0] ALU[    3] Signals[0,0,6], PCSrc:[0], PCStall:[0], Flush: 0, IFID:0110001010100000, IDEX: 0110000100000011, EXMEM:0000000000000000, Write:0, DATA:0000000000000000, wdata:    0, Predict Stage: 0, WriteData:     0, WriteRegister: 0, Branch:    0
IMEM[    6,1011011000100010] DMEM[    3,    0,    x] ALU[   32] Signals[1,0,7], PCSrc:[0], PCStall:[1], Flush: 0, IFID:1101010100100010, IDEX: 0110001010100000, EXMEM:0110000100000011, Write:0, DATA:xxxxxxxxxxxxxxxx, wdata:    3, Predict Stage: 0, WriteData:     0, WriteRegister: 0, Branch:    8
IMEM[    6,1011011000100010] DMEM[    3,    0,    x] ALU[   32] Signals[0,0,8], PCSrc:[0], PCStall:[1], Flush: 0, IFID:1101010100100010, IDEX: 0110001010100000, EXMEM:0110000100000011, Write:0, DATA:xxxxxxxxxxxxxxxx, wdata:    3, Predict Stage: 0, WriteData:     0, WriteRegister: 0, Branch:    8
IMEM[    6,1011011000100010] DMEM[   32,    0,    x] ALU[    0] Signals[1,0,9], PCSrc:[0], PCStall:[1], Flush: 0, IFID:1101010100100010, IDEX: 0000000000000000, EXMEM:0110001010100000, Write:1, DATA:xxxxxxxxxxxxxxxx, wdata:   32, Predict Stage: 0, WriteData:     3, WriteRegister: 2, Branch:   68
IMEM[    6,1011011000100010] DMEM[   32,    0,    x] ALU[    0] Signals[0,0,10], PCSrc:[0], PCStall:[1], Flush: 0, IFID:1101010100100010, IDEX: 0000000000000000, EXMEM:0110001010100000, Write:1, DATA:xxxxxxxxxxxxxxxx, wdata:   32, Predict Stage: 0, WriteData:     3, WriteRegister: 2, Branch:   68
IMEM[    6,1011011000100010] DMEM[    0,    0,    0] ALU[    0] Signals[1,0,11], PCSrc:[0], PCStall:[0], Flush: 0, IFID:1101010100100010, IDEX: 0000000000000000, EXMEM:0000000000000000, Write:1, DATA:0000000000000000, wdata:    0, Predict Stage: 0, WriteData:    32, WriteRegister: 5, Branch:   68
IMEM[    6,1011011000100010] DMEM[    0,    0,    0] ALU[    0] Signals[0,0,12], PCSrc:[0], PCStall:[0], Flush: 0, IFID:1101010100100010, IDEX: 0000000000000000, EXMEM:0000000000000000, Write:1, DATA:0000000000000000, wdata:    0, Predict Stage: 0, WriteData:    32, WriteRegister: 5, Branch:   68
IMEM[    8,0111001000000101] DMEM[    0,    0,    0] ALU[   66] Signals[1,0,13], PCSrc:[0], PCStall:[0], Flush: 0, IFID:1011011000100010, IDEX: 1101010100100010, EXMEM:0000000000000000, Write:0, DATA:0000000000000000, wdata:    0, Predict Stage: 0, WriteData:     0, WriteRegister: 0, Branch:   68
IMEM[    8,0111001000000101] DMEM[    0,    0,    0] ALU[   66] Signals[0,0,14], PCSrc:[0], PCStall:[0], Flush: 0, IFID:1011011000100010, IDEX: 1101010100100010, EXMEM:0000000000000000, Write:0, DATA:0000000000000000, wdata:    0, Predict Stage: 0, WriteData:     0, WriteRegister: 0, Branch:   68
IMEM[   10,1101011000100010] DMEM[   66,    0,    3] ALU[   66] Signals[1,0,15], PCSrc:[0], PCStall:[1], Flush: 0, IFID:0111001000000101, IDEX: 1011011000100010, EXMEM:1101010100100010, Write:0, DATA:0000000000000011, wdata:   66, Predict Stage: 0, WriteData:     0, WriteRegister: 0, Branch:   74
IMEM[   10,1101011000100010] DMEM[   66,    0,    3] ALU[   66] Signals[0,0,16], PCSrc:[0], PCStall:[1], Flush: 0, IFID:0111001000000101, IDEX: 1011011000100010, EXMEM:1101010100100010, Write:0, DATA:0000000000000011, wdata:   66, Predict Stage: 0, WriteData:     0, WriteRegister: 0, Branch:   74
IMEM[   10,1101011000100010] DMEM[   66,    3,    x] ALU[    0] Signals[1,0,17], PCSrc:[0], PCStall:[1], Flush: 0, IFID:0111001000000101, IDEX: 0000000000000000, EXMEM:1011011000100010, Write:0, DATA:xxxxxxxxxxxxxxxx, wdata:   66, Predict Stage: 0, WriteData:    66, WriteRegister: 2, Branch:   76
Stopped at time : 18 ns : File "D:/Dropbox/Codespace/PMIPS/Temp/testbenchSubproject3.V" Line 60
ISim P.68d (signature 0x7708f090)
WARNING: A WEBPACK license was found.
WARNING: Please use Xilinx License Configuration Manager to check out a full ISim license.
WARNING: ISim will run in Lite mode. Please refer to the ISim documentation for more information on the differences between the Lite and the Full version.
This is a Lite version of ISim.
WARNING: File "D:/Dropbox/Codespace/PMIPS/Temp/PMIPSL0.V" Line 137.  For instance comp/hzc/, width 1 of formal port EXMEMRegDst is not equal to width 2 of actual variable EXMEMRegDst. 
WARNING: File "D:/Dropbox/Codespace/PMIPS/Temp/PMIPSL0.V" Line 105.  For instance comp/hzc/, width 1 of formal port IDEXRegDst is not equal to width 2 of actual variable IDEXRegDst. 
WARNING: File "D:/Dropbox/Codespace/PMIPS/Temp/PMIPSL0.V" Line 148.  For instance comp/RegDstMux/, width 1 of formal port select is not equal to width 2 of actual variable MEMWBRegDst. 
# run 1000 ns
Simulator is doing circuit initialization process.

IO[display,switch0,switch1]

IMEM[PC,Instr]

DMEM[address, rdata, wdata]

ALU[result]

Signals[clock,reset,time]
Finished circuit initialization process.
IMEM[    x,xxxxxxxxxxxxxxxx] DMEM[    x,    0,    x] ALU[    x] Signals[0,1,0], PCSrc:[x], PCStall:[1], Flush: 0, IFID:xxxxxxxxxxxxxxxx, IDEX: xxxxxxxxxxxxxxxx, EXMEM:xxxxxxxxxxxxxxxx, Write:x, DATA:xxxxxxxxxxxxxxxx, wdata:    x, Predict Stage: 0, WriteData:     x, WriteRegister: x, Branch:    x
IMEM[    0,0110000100000011] DMEM[    x,    0,    0] ALU[    0] Signals[1,1,1], PCSrc:[0], PCStall:[1], Flush: 0, IFID:0000000000000000, IDEX: 0000000000000000, EXMEM:0000000000000000, Write:0, DATA:0000000000000000, wdata:    x, Predict Stage: 0, WriteData:     x, WriteRegister: x, Branch:    x
IMEM[    0,0110000100000011] DMEM[    x,    0,    0] ALU[    0] Signals[0,0,2], PCSrc:[0], PCStall:[0], Flush: 0, IFID:0000000000000000, IDEX: 0000000000000000, EXMEM:0000000000000000, Write:0, DATA:0000000000000000, wdata:    x, Predict Stage: 0, WriteData:     x, WriteRegister: x, Branch:    x
IMEM[    2,0110001010100000] DMEM[    0,    0,    0] ALU[    0] Signals[1,0,3], PCSrc:[0], PCStall:[0], Flush: 0, IFID:0110000100000011, IDEX: 0000000000000000, EXMEM:0000000000000000, Write:0, DATA:0000000000000000, wdata:    0, Predict Stage: 0, WriteData:     x, WriteRegister: 0, Branch:    x
IMEM[    2,0110001010100000] DMEM[    0,    0,    0] ALU[    0] Signals[0,0,4], PCSrc:[0], PCStall:[0], Flush: 0, IFID:0110000100000011, IDEX: 0000000000000000, EXMEM:0000000000000000, Write:0, DATA:0000000000000000, wdata:    0, Predict Stage: 0, WriteData:     x, WriteRegister: 0, Branch:    x
IMEM[    4,1101010100100010] DMEM[    0,    0,    0] ALU[    3] Signals[1,0,5], PCSrc:[0], PCStall:[0], Flush: 0, IFID:0110001010100000, IDEX: 0110000100000011, EXMEM:0000000000000000, Write:0, DATA:0000000000000000, wdata:    0, Predict Stage: 0, WriteData:     0, WriteRegister: 0, Branch:    0
IMEM[    4,1101010100100010] DMEM[    0,    0,    0] ALU[    3] Signals[0,0,6], PCSrc:[0], PCStall:[0], Flush: 0, IFID:0110001010100000, IDEX: 0110000100000011, EXMEM:0000000000000000, Write:0, DATA:0000000000000000, wdata:    0, Predict Stage: 0, WriteData:     0, WriteRegister: 0, Branch:    0
IMEM[    6,1011011000100010] DMEM[    3,    0,    x] ALU[   32] Signals[1,0,7], PCSrc:[0], PCStall:[1], Flush: 0, IFID:1101010100100010, IDEX: 0110001010100000, EXMEM:0110000100000011, Write:0, DATA:xxxxxxxxxxxxxxxx, wdata:    3, Predict Stage: 0, WriteData:     0, WriteRegister: 0, Branch:    8
IMEM[    6,1011011000100010] DMEM[    3,    0,    x] ALU[   32] Signals[0,0,8], PCSrc:[0], PCStall:[1], Flush: 0, IFID:1101010100100010, IDEX: 0110001010100000, EXMEM:0110000100000011, Write:0, DATA:xxxxxxxxxxxxxxxx, wdata:    3, Predict Stage: 0, WriteData:     0, WriteRegister: 0, Branch:    8
IMEM[    6,1011011000100010] DMEM[   32,    0,    x] ALU[    0] Signals[1,0,9], PCSrc:[0], PCStall:[1], Flush: 0, IFID:1101010100100010, IDEX: 0000000000000000, EXMEM:0110001010100000, Write:1, DATA:xxxxxxxxxxxxxxxx, wdata:   32, Predict Stage: 0, WriteData:     3, WriteRegister: 2, Branch:   68
IMEM[    6,1011011000100010] DMEM[   32,    0,    x] ALU[    0] Signals[0,0,10], PCSrc:[0], PCStall:[1], Flush: 0, IFID:1101010100100010, IDEX: 0000000000000000, EXMEM:0110001010100000, Write:1, DATA:xxxxxxxxxxxxxxxx, wdata:   32, Predict Stage: 0, WriteData:     3, WriteRegister: 2, Branch:   68
IMEM[    6,1011011000100010] DMEM[    0,    0,    0] ALU[    0] Signals[1,0,11], PCSrc:[0], PCStall:[0], Flush: 0, IFID:1101010100100010, IDEX: 0000000000000000, EXMEM:0000000000000000, Write:1, DATA:0000000000000000, wdata:    0, Predict Stage: 0, WriteData:    32, WriteRegister: 5, Branch:   68
IMEM[    6,1011011000100010] DMEM[    0,    0,    0] ALU[    0] Signals[0,0,12], PCSrc:[0], PCStall:[0], Flush: 0, IFID:1101010100100010, IDEX: 0000000000000000, EXMEM:0000000000000000, Write:1, DATA:0000000000000000, wdata:    0, Predict Stage: 0, WriteData:    32, WriteRegister: 5, Branch:   68
IMEM[    8,0111001000000101] DMEM[    0,    0,    0] ALU[   66] Signals[1,0,13], PCSrc:[0], PCStall:[0], Flush: 0, IFID:1011011000100010, IDEX: 1101010100100010, EXMEM:0000000000000000, Write:0, DATA:0000000000000000, wdata:    0, Predict Stage: 0, WriteData:     0, WriteRegister: 0, Branch:   68
IMEM[    8,0111001000000101] DMEM[    0,    0,    0] ALU[   66] Signals[0,0,14], PCSrc:[0], PCStall:[0], Flush: 0, IFID:1011011000100010, IDEX: 1101010100100010, EXMEM:0000000000000000, Write:0, DATA:0000000000000000, wdata:    0, Predict Stage: 0, WriteData:     0, WriteRegister: 0, Branch:   68
IMEM[   10,1101011000100010] DMEM[   66,    0,    3] ALU[   66] Signals[1,0,15], PCSrc:[0], PCStall:[1], Flush: 0, IFID:0111001000000101, IDEX: 1011011000100010, EXMEM:1101010100100010, Write:0, DATA:0000000000000011, wdata:   66, Predict Stage: 0, WriteData:     0, WriteRegister: 0, Branch:   74
IMEM[   10,1101011000100010] DMEM[   66,    0,    3] ALU[   66] Signals[0,0,16], PCSrc:[0], PCStall:[1], Flush: 0, IFID:0111001000000101, IDEX: 1011011000100010, EXMEM:1101010100100010, Write:0, DATA:0000000000000011, wdata:   66, Predict Stage: 0, WriteData:     0, WriteRegister: 0, Branch:   74
IMEM[   10,1101011000100010] DMEM[   66,    3,    x] ALU[    0] Signals[1,0,17], PCSrc:[0], PCStall:[1], Flush: 0, IFID:0111001000000101, IDEX: 0000000000000000, EXMEM:1011011000100010, Write:0, DATA:xxxxxxxxxxxxxxxx, wdata:   66, Predict Stage: 0, WriteData:    66, WriteRegister: 2, Branch:   76
IMEM[   10,1101011000100010] DMEM[   66,    3,    x] ALU[    0] Signals[0,0,18], PCSrc:[0], PCStall:[1], Flush: 0, IFID:0111001000000101, IDEX: 0000000000000000, EXMEM:1011011000100010, Write:0, DATA:xxxxxxxxxxxxxxxx, wdata:   66, Predict Stage: 0, WriteData:    66, WriteRegister: 2, Branch:   76
IMEM[   10,1101011000100010] DMEM[    0,    0,    0] ALU[    0] Signals[1,0,19], PCSrc:[0], PCStall:[0], Flush: 0, IFID:0111001000000101, IDEX: 0000000000000000, EXMEM:0000000000000000, Write:1, DATA:0000000000000000, wdata:    0, Predict Stage: 0, WriteData:     3, WriteRegister: 4, Branch:   76
IMEM[   10,1101011000100010] DMEM[    0,    0,    0] ALU[    0] Signals[0,0,20], PCSrc:[0], PCStall:[0], Flush: 0, IFID:0111001000000101, IDEX: 0000000000000000, EXMEM:0000000000000000, Write:1, DATA:0000000000000000, wdata:    0, Predict Stage: 0, WriteData:     3, WriteRegister: 4, Branch:   76
IMEM[   12,1011011000100010] DMEM[    0,    0,    0] ALU[    8] Signals[1,0,21], PCSrc:[0], PCStall:[1], Flush: 0, IFID:1101011000100010, IDEX: 0111001000000101, EXMEM:0000000000000000, Write:0, DATA:0000000000000000, wdata:    0, Predict Stage: 0, WriteData:     0, WriteRegister: 0, Branch:   76
IMEM[   12,1011011000100010] DMEM[    0,    0,    0] ALU[    8] Signals[0,0,22], PCSrc:[0], PCStall:[1], Flush: 0, IFID:1101011000100010, IDEX: 0111001000000101, EXMEM:0000000000000000, Write:0, DATA:0000000000000000, wdata:    0, Predict Stage: 0, WriteData:     0, WriteRegister: 0, Branch:   76
IMEM[   12,1011011000100010] DMEM[    8,    0,    3] ALU[    0] Signals[1,0,23], PCSrc:[0], PCStall:[1], Flush: 0, IFID:1101011000100010, IDEX: 0000000000000000, EXMEM:0111001000000101, Write:0, DATA:0000000000000011, wdata:    8, Predict Stage: 0, WriteData:     0, WriteRegister: 0, Branch:   20
IMEM[   12,1011011000100010] DMEM[    8,    0,    3] ALU[    0] Signals[0,0,24], PCSrc:[0], PCStall:[1], Flush: 0, IFID:1101011000100010, IDEX: 0000000000000000, EXMEM:0111001000000101, Write:0, DATA:0000000000000011, wdata:    8, Predict Stage: 0, WriteData:     0, WriteRegister: 0, Branch:   20
IMEM[   12,1011011000100010] DMEM[    0,    0,    0] ALU[    0] Signals[1,0,25], PCSrc:[0], PCStall:[0], Flush: 0, IFID:1101011000100010, IDEX: 0000000000000000, EXMEM:0000000000000000, Write:1, DATA:0000000000000000, wdata:    0, Predict Stage: 0, WriteData:     8, WriteRegister: 4, Branch:   20
IMEM[   12,1011011000100010] DMEM[    0,    0,    0] ALU[    0] Signals[0,0,26], PCSrc:[0], PCStall:[0], Flush: 0, IFID:1101011000100010, IDEX: 0000000000000000, EXMEM:0000000000000000, Write:1, DATA:0000000000000000, wdata:    0, Predict Stage: 0, WriteData:     8, WriteRegister: 4, Branch:   20
IMEM[   14,0111001000000010] DMEM[    0,    0,    0] ALU[   66] Signals[1,0,27], PCSrc:[0], PCStall:[0], Flush: 0, IFID:1011011000100010, IDEX: 1101011000100010, EXMEM:0000000000000000, Write:0, DATA:0000000000000000, wdata:    0, Predict Stage: 0, WriteData:     0, WriteRegister: 0, Branch:   20
IMEM[   14,0111001000000010] DMEM[    0,    0,    0] ALU[   66] Signals[0,0,28], PCSrc:[0], PCStall:[0], Flush: 0, IFID:1011011000100010, IDEX: 1101011000100010, EXMEM:0000000000000000, Write:0, DATA:0000000000000000, wdata:    0, Predict Stage: 0, WriteData:     0, WriteRegister: 0, Branch:   20
IMEM[   16,0100000001111011] DMEM[   66,    0,    8] ALU[   66] Signals[1,0,29], PCSrc:[0], PCStall:[1], Flush: 0, IFID:0111001000000010, IDEX: 1011011000100010, EXMEM:1101011000100010, Write:0, DATA:0000000000001000, wdata:   66, Predict Stage: 0, WriteData:     0, WriteRegister: 0, Branch:   80
IMEM[   16,0100000001111011] DMEM[   66,    0,    8] ALU[   66] Signals[0,0,30], PCSrc:[0], PCStall:[1], Flush: 0, IFID:0111001000000010, IDEX: 1011011000100010, EXMEM:1101011000100010, Write:0, DATA:0000000000001000, wdata:   66, Predict Stage: 0, WriteData:     0, WriteRegister: 0, Branch:   80
IMEM[   16,0100000001111011] DMEM[   66,    8,    8] ALU[    0] Signals[1,0,31], PCSrc:[0], PCStall:[1], Flush: 0, IFID:0111001000000010, IDEX: 0000000000000000, EXMEM:1011011000100010, Write:0, DATA:0000000000001000, wdata:   66, Predict Stage: 0, WriteData:    66, WriteRegister: 4, Branch:   82
IMEM[   16,0100000001111011] DMEM[   66,    8,    8] ALU[    0] Signals[0,0,32], PCSrc:[0], PCStall:[1], Flush: 0, IFID:0111001000000010, IDEX: 0000000000000000, EXMEM:1011011000100010, Write:0, DATA:0000000000001000, wdata:   66, Predict Stage: 0, WriteData:    66, WriteRegister: 4, Branch:   82
IMEM[   16,0100000001111011] DMEM[    0,    0,    0] ALU[    0] Signals[1,0,33], PCSrc:[0], PCStall:[0], Flush: 0, IFID:0111001000000010, IDEX: 0000000000000000, EXMEM:0000000000000000, Write:1, DATA:0000000000000000, wdata:    0, Predict Stage: 0, WriteData:     8, WriteRegister: 4, Branch:   82
IMEM[   16,0100000001111011] DMEM[    0,    0,    0] ALU[    0] Signals[0,0,34], PCSrc:[0], PCStall:[0], Flush: 0, IFID:0111001000000010, IDEX: 0000000000000000, EXMEM:0000000000000000, Write:1, DATA:0000000000000000, wdata:    0, Predict Stage: 0, WriteData:     8, WriteRegister: 4, Branch:   82
IMEM[   18,0000000000000000] DMEM[    0,    0,    0] ALU[   10] Signals[1,0,35], PCSrc:[0], PCStall:[0], Flush: 0, IFID:0100000001111011, IDEX: 0111001000000010, EXMEM:0000000000000000, Write:0, DATA:0000000000000000, wdata:    0, Predict Stage: 0, WriteData:     0, WriteRegister: 0, Branch:   82
IMEM[   18,0000000000000000] DMEM[    0,    0,    0] ALU[   10] Signals[0,0,36], PCSrc:[0], PCStall:[0], Flush: 0, IFID:0100000001111011, IDEX: 0111001000000010, EXMEM:0000000000000000, Write:0, DATA:0000000000000000, wdata:    0, Predict Stage: 0, WriteData:     0, WriteRegister: 0, Branch:   82
IMEM[   20,0000000000000000] DMEM[   10,    0,    8] ALU[    0] Signals[1,0,37], PCSrc:[0], PCStall:[0], Flush: 0, IFID:0000000000000000, IDEX: 0100000001111011, EXMEM:0111001000000010, Write:0, DATA:0000000000001000, wdata:   10, Predict Stage: 1, WriteData:     0, WriteRegister: 0, Branch:   20
IMEM[   20,0000000000000000] DMEM[   10,    0,    8] ALU[    0] Signals[0,0,38], PCSrc:[0], PCStall:[0], Flush: 0, IFID:0000000000000000, IDEX: 0100000001111011, EXMEM:0111001000000010, Write:0, DATA:0000000000001000, wdata:   10, Predict Stage: 1, WriteData:     0, WriteRegister: 0, Branch:   20
IMEM[   22,0000000000000000] DMEM[    0,    0,    0] ALU[    0] Signals[1,0,39], PCSrc:[1], PCStall:[0], Flush: 1, IFID:0000000000000000, IDEX: 0000000000000000, EXMEM:0100000001111011, Write:1, DATA:0000000000000000, wdata:    0, Predict Stage: 2, WriteData:    10, WriteRegister: 4, Branch:    8
IMEM[   22,0000000000000000] DMEM[    0,    0,    0] ALU[    0] Signals[0,0,40], PCSrc:[1], PCStall:[0], Flush: 1, IFID:0000000000000000, IDEX: 0000000000000000, EXMEM:0100000001111011, Write:1, DATA:0000000000000000, wdata:    0, Predict Stage: 2, WriteData:    10, WriteRegister: 4, Branch:    8
IMEM[    8,0111001000000101] DMEM[    0,    0,    0] ALU[    0] Signals[1,0,41], PCSrc:[0], PCStall:[0], Flush: 0, IFID:0000000000000000, IDEX: 0000000000000000, EXMEM:0000000000000000, Write:0, DATA:0000000000000000, wdata:    0, Predict Stage: 0, WriteData:     0, WriteRegister: 0, Branch:   20
IMEM[    8,0111001000000101] DMEM[    0,    0,    0] ALU[    0] Signals[0,0,42], PCSrc:[0], PCStall:[0], Flush: 0, IFID:0000000000000000, IDEX: 0000000000000000, EXMEM:0000000000000000, Write:0, DATA:0000000000000000, wdata:    0, Predict Stage: 0, WriteData:     0, WriteRegister: 0, Branch:   20
IMEM[   10,1101011000100010] DMEM[    0,    0,    0] ALU[    0] Signals[1,0,43], PCSrc:[0], PCStall:[0], Flush: 0, IFID:0111001000000101, IDEX: 0000000000000000, EXMEM:0000000000000000, Write:0, DATA:0000000000000000, wdata:    0, Predict Stage: 0, WriteData:     0, WriteRegister: 0, Branch:   20
IMEM[   10,1101011000100010] DMEM[    0,    0,    0] ALU[    0] Signals[0,0,44], PCSrc:[0], PCStall:[0], Flush: 0, IFID:0111001000000101, IDEX: 0000000000000000, EXMEM:0000000000000000, Write:0, DATA:0000000000000000, wdata:    0, Predict Stage: 0, WriteData:     0, WriteRegister: 0, Branch:   20
IMEM[   12,1011011000100010] DMEM[    0,    0,    0] ALU[   15] Signals[1,0,45], PCSrc:[0], PCStall:[1], Flush: 0, IFID:1101011000100010, IDEX: 0111001000000101, EXMEM:0000000000000000, Write:0, DATA:0000000000000000, wdata:    0, Predict Stage: 0, WriteData:     0, WriteRegister: 0, Branch:   24
IMEM[   12,1011011000100010] DMEM[    0,    0,    0] ALU[   15] Signals[0,0,46], PCSrc:[0], PCStall:[1], Flush: 0, IFID:1101011000100010, IDEX: 0111001000000101, EXMEM:0000000000000000, Write:0, DATA:0000000000000000, wdata:    0, Predict Stage: 0, WriteData:     0, WriteRegister: 0, Branch:   24
IMEM[   12,1011011000100010] DMEM[   15,    0,   10] ALU[    0] Signals[1,0,47], PCSrc:[0], PCStall:[1], Flush: 0, IFID:1101011000100010, IDEX: 0000000000000000, EXMEM:0111001000000101, Write:0, DATA:0000000000001010, wdata:   15, Predict Stage: 0, WriteData:     0, WriteRegister: 0, Branch:   20
IMEM[   12,1011011000100010] DMEM[   15,    0,   10] ALU[    0] Signals[0,0,48], PCSrc:[0], PCStall:[1], Flush: 0, IFID:1101011000100010, IDEX: 0000000000000000, EXMEM:0111001000000101, Write:0, DATA:0000000000001010, wdata:   15, Predict Stage: 0, WriteData:     0, WriteRegister: 0, Branch:   20
IMEM[   12,1011011000100010] DMEM[    0,    0,    0] ALU[    0] Signals[1,0,49], PCSrc:[0], PCStall:[0], Flush: 0, IFID:1101011000100010, IDEX: 0000000000000000, EXMEM:0000000000000000, Write:1, DATA:0000000000000000, wdata:    0, Predict Stage: 0, WriteData:    15, WriteRegister: 4, Branch:   20
IMEM[   12,1011011000100010] DMEM[    0,    0,    0] ALU[    0] Signals[0,0,50], PCSrc:[0], PCStall:[0], Flush: 0, IFID:1101011000100010, IDEX: 0000000000000000, EXMEM:0000000000000000, Write:1, DATA:0000000000000000, wdata:    0, Predict Stage: 0, WriteData:    15, WriteRegister: 4, Branch:   20
IMEM[   14,0111001000000010] DMEM[    0,    0,    0] ALU[   66] Signals[1,0,51], PCSrc:[0], PCStall:[0], Flush: 0, IFID:1011011000100010, IDEX: 1101011000100010, EXMEM:0000000000000000, Write:0, DATA:0000000000000000, wdata:    0, Predict Stage: 0, WriteData:     0, WriteRegister: 0, Branch:   20
Stopped at time : 52 ns : File "D:/Dropbox/Codespace/PMIPS/Temp/testbenchSubproject3.V" Line 60
ISim P.68d (signature 0x7708f090)
WARNING: A WEBPACK license was found.
WARNING: Please use Xilinx License Configuration Manager to check out a full ISim license.
WARNING: ISim will run in Lite mode. Please refer to the ISim documentation for more information on the differences between the Lite and the Full version.
This is a Lite version of ISim.
WARNING: File "D:/Dropbox/Codespace/PMIPS/Temp/PMIPSL0.V" Line 137.  For instance comp/hzc/, width 1 of formal port EXMEMRegDst is not equal to width 2 of actual variable EXMEMRegDst. 
WARNING: File "D:/Dropbox/Codespace/PMIPS/Temp/PMIPSL0.V" Line 105.  For instance comp/hzc/, width 1 of formal port IDEXRegDst is not equal to width 2 of actual variable IDEXRegDst. 
WARNING: File "D:/Dropbox/Codespace/PMIPS/Temp/PMIPSL0.V" Line 148.  For instance comp/RegDstMux/, width 1 of formal port select is not equal to width 2 of actual variable MEMWBRegDst. 
# run 1000 ns
Simulator is doing circuit initialization process.

IO[display,switch0,switch1]

IMEM[PC,Instr]

DMEM[address, rdata, wdata]

ALU[result]

Signals[clock,reset,time]
Finished circuit initialization process.
IMEM[    x,xxxxxxxxxxxxxxxx] DMEM[    x,    0,    x] ALU[    x] Signals[0,1,0], PCSrc:[x], PCStall:[1], Flush: 0, IFID:xxxxxxxxxxxxxxxx, IDEX: xxxxxxxxxxxxxxxx, EXMEM:xxxxxxxxxxxxxxxx, Write:x, DATA:xxxxxxxxxxxxxxxx, wdata:    x, Predict Stage: 0, WriteData:     x, WriteRegister: x, Branch:    x
IMEM[    0,0110000100000011] DMEM[    x,    0,    0] ALU[    0] Signals[1,1,1], PCSrc:[0], PCStall:[1], Flush: 0, IFID:0000000000000000, IDEX: 0000000000000000, EXMEM:0000000000000000, Write:0, DATA:0000000000000000, wdata:    x, Predict Stage: 0, WriteData:     x, WriteRegister: x, Branch:    x
IMEM[    0,0110000100000011] DMEM[    x,    0,    0] ALU[    0] Signals[0,0,2], PCSrc:[0], PCStall:[0], Flush: 0, IFID:0000000000000000, IDEX: 0000000000000000, EXMEM:0000000000000000, Write:0, DATA:0000000000000000, wdata:    x, Predict Stage: 0, WriteData:     x, WriteRegister: x, Branch:    x
IMEM[    2,0110001010100000] DMEM[    0,    0,    0] ALU[    0] Signals[1,0,3], PCSrc:[0], PCStall:[0], Flush: 0, IFID:0110000100000011, IDEX: 0000000000000000, EXMEM:0000000000000000, Write:0, DATA:0000000000000000, wdata:    0, Predict Stage: 0, WriteData:     x, WriteRegister: 0, Branch:    x
IMEM[    2,0110001010100000] DMEM[    0,    0,    0] ALU[    0] Signals[0,0,4], PCSrc:[0], PCStall:[0], Flush: 0, IFID:0110000100000011, IDEX: 0000000000000000, EXMEM:0000000000000000, Write:0, DATA:0000000000000000, wdata:    0, Predict Stage: 0, WriteData:     x, WriteRegister: 0, Branch:    x
IMEM[    4,1101010100100010] DMEM[    0,    0,    0] ALU[    3] Signals[1,0,5], PCSrc:[0], PCStall:[0], Flush: 0, IFID:0110001010100000, IDEX: 0110000100000011, EXMEM:0000000000000000, Write:0, DATA:0000000000000000, wdata:    0, Predict Stage: 0, WriteData:     0, WriteRegister: 0, Branch:    0
IMEM[    4,1101010100100010] DMEM[    0,    0,    0] ALU[    3] Signals[0,0,6], PCSrc:[0], PCStall:[0], Flush: 0, IFID:0110001010100000, IDEX: 0110000100000011, EXMEM:0000000000000000, Write:0, DATA:0000000000000000, wdata:    0, Predict Stage: 0, WriteData:     0, WriteRegister: 0, Branch:    0
IMEM[    6,1011011000100010] DMEM[    3,    0,    x] ALU[   32] Signals[1,0,7], PCSrc:[0], PCStall:[1], Flush: 0, IFID:1101010100100010, IDEX: 0110001010100000, EXMEM:0110000100000011, Write:0, DATA:xxxxxxxxxxxxxxxx, wdata:    3, Predict Stage: 0, WriteData:     0, WriteRegister: 0, Branch:    8
