sub1/isim.log
ISim log file
Running: D:\Dropbox\Codespace\PMIPS\sub1\testbench5_isim_beh.exe -intstyle ise -gui -tclbatch isim.cmd -wdb D:/Dropbox/Codespace/PMIPS/sub1/testbench5_isim_beh.wdb 
ISim P.68d (signature 0x7708f090)
WARNING: A WEBPACK license was found.
WARNING: Please use Xilinx License Configuration Manager to check out a full ISim license.
WARNING: ISim will run in Lite mode. Please refer to the ISim documentation for more information on the differences between the Lite and the Full version.
This is a Lite version of ISim.
Time resolution is 1 ps
# onerror resume
# wave add /
# run 1000 ns
Simulator is doing circuit initialization process.

IO[display,switch0,switch1]

IMEM[PC,Instr]

DMEM[address, rdata, wdata]

ALU[result]

Signals[clock,reset,time]
Finished circuit initialization process.
IO[xxxxxxx,1,0] IMEM[    x,xxxxxxxxxxxxxxxx] DMEM[    x,    0,    x] ALU[    x] Signals[0,1,0], Debug:[xxxxxxxxxxxxxxxx], PCSrc: x, AluZ:x, EXMEMBranch: x, OPCode:xxx
IO[xxxxxxx,1,0] IMEM[    0,0110000100000011] DMEM[    x,    0,    x] ALU[    x] Signals[1,1,1], Debug:[0000000000000000], PCSrc: x, AluZ:x, EXMEMBranch: x, OPCode:000
IO[xxxxxxx,1,0] IMEM[    0,0110000100000011] DMEM[    x,    0,    x] ALU[    x] Signals[0,0,2], Debug:[0000000000000000], PCSrc: x, AluZ:x, EXMEMBranch: x, OPCode:000
IO[xxxxxxx,1,0] IMEM[    2,0110001010100000] DMEM[    x,    0,    x] ALU[    0] Signals[1,0,3], Debug:[0110000100000011], PCSrc: 0, AluZ:x, EXMEMBranch: 0, OPCode:011
IO[xxxxxxx,1,0] IMEM[    2,0110001010100000] DMEM[    x,    0,    x] ALU[    0] Signals[0,0,4], Debug:[0110000100000011], PCSrc: 0, AluZ:x, EXMEMBranch: 0, OPCode:011
IO[xxxxxxx,1,0] IMEM[    4,1101010100100010] DMEM[    0,    0,    0] ALU[    3] Signals[1,0,5], Debug:[0110001010100000], PCSrc: 0, AluZ:1, EXMEMBranch: 0, OPCode:011
IO[xxxxxxx,1,0] IMEM[    4,1101010100100010] DMEM[    0,    0,    0] ALU[    3] Signals[0,0,6], Debug:[0110001010100000], PCSrc: 0, AluZ:1, EXMEMBranch: 0, OPCode:011
IO[xxxxxxx,1,0] IMEM[    6,1011011000100010] DMEM[    3,    0,    x] ALU[   32] Signals[1,0,7], Debug:[1101010100100010], PCSrc: 0, AluZ:0, EXMEMBranch: 0, OPCode:110
IO[xxxxxxx,1,0] IMEM[    6,1011011000100010] DMEM[    3,    0,    x] ALU[   32] Signals[0,0,8], Debug:[1101010100100010], PCSrc: 0, AluZ:0, EXMEMBranch: 0, OPCode:110
IO[xxxxxxx,1,0] IMEM[    8,0111001000000101] DMEM[   32,    0,    x] ALU[    x] Signals[1,0,9], Debug:[1011011000100010], PCSrc: 0, AluZ:0, EXMEMBranch: 0, OPCode:101
IO[xxxxxxx,1,0] IMEM[    8,0111001000000101] DMEM[   32,    0,    x] ALU[    x] Signals[0,0,10], Debug:[1011011000100010], PCSrc: 0, AluZ:0, EXMEMBranch: 0, OPCode:101
IO[xxxxxxx,1,0] IMEM[   10,1101011000100010] DMEM[    x,    0,    x] ALU[    x] Signals[1,0,11], Debug:[0111001000000101], PCSrc: 0, AluZ:0, EXMEMBranch: 0, OPCode:011
IO[xxxxxxx,1,0] IMEM[   10,1101011000100010] DMEM[    x,    0,    x] ALU[    x] Signals[0,0,12], Debug:[0111001000000101], PCSrc: 0, AluZ:0, EXMEMBranch: 0, OPCode:011
IO[xxxxxxx,1,0] IMEM[   12,1011011000100010] DMEM[    x,    0,    x] ALU[    x] Signals[1,0,13], Debug:[1101011000100010], PCSrc: 0, AluZ:0, EXMEMBranch: 0, OPCode:110
IO[xxxxxxx,1,0] IMEM[   12,1011011000100010] DMEM[    x,    0,    x] ALU[    x] Signals[0,0,14], Debug:[1101011000100010], PCSrc: 0, AluZ:0, EXMEMBranch: 0, OPCode:110
IO[xxxxxxx,1,0] IMEM[   14,0111001000000010] DMEM[    x,    0,    x] ALU[   66] Signals[1,0,15], Debug:[1011011000100010], PCSrc: 0, AluZ:0, EXMEMBranch: 0, OPCode:101
IO[xxxxxxx,1,0] IMEM[   14,0111001000000010] DMEM[    x,    0,    x] ALU[   66] Signals[0,0,16], Debug:[1011011000100010], PCSrc: 0, AluZ:0, EXMEMBranch: 0, OPCode:101
IO[xxxxxxx,1,0] IMEM[   16,0100000001110111] DMEM[   66,    0,    x] ALU[   66] Signals[1,0,17], Debug:[0111001000000010], PCSrc: 0, AluZ:0, EXMEMBranch: 0, OPCode:011
IO[xxxxxxx,1,0] IMEM[   16,0100000001110111] DMEM[   66,    0,    x] ALU[   66] Signals[0,0,18], Debug:[0111001000000010], PCSrc: 0, AluZ:0, EXMEMBranch: 0, OPCode:011
IO[xxxxxxx,1,0] IMEM[   18,0000000000000000] DMEM[   66,    x,    0] ALU[    x] Signals[1,0,19], Debug:[0100000001110111], PCSrc: 0, AluZ:0, EXMEMBranch: 0, OPCode:010
IO[xxxxxxx,1,0] IMEM[   18,0000000000000000] DMEM[   66,    x,    0] ALU[    x] Signals[0,0,20], Debug:[0100000001110111], PCSrc: 0, AluZ:0, EXMEMBranch: 0, OPCode:010
IO[xxxxxxx,1,0] IMEM[   20,0000000000000000] DMEM[    x,    0,    x] ALU[    0] Signals[1,0,21], Debug:[0000000000000000], PCSrc: 0, AluZ:0, EXMEMBranch: 0, OPCode:000
IO[xxxxxxx,1,0] IMEM[   20,0000000000000000] DMEM[    x,    0,    x] ALU[    0] Signals[0,0,22], Debug:[0000000000000000], PCSrc: 0, AluZ:0, EXMEMBranch: 0, OPCode:000
IO[xxxxxxx,1,0] IMEM[   22,0000000000000000] DMEM[    0,    0,    0] ALU[    0] Signals[1,0,23], Debug:[0000000000000000], PCSrc: 1, AluZ:1, EXMEMBranch: 1, OPCode:000
IO[xxxxxxx,1,0] IMEM[   22,0000000000000000] DMEM[    0,    0,    0] ALU[    0] Signals[0,0,24], Debug:[0000000000000000], PCSrc: 1, AluZ:1, EXMEMBranch: 1, OPCode:000
IO[xxxxxxx,1,0] IMEM[    0,0110000100000011] DMEM[    0,    0,    0] ALU[    0] Signals[1,0,25], Debug:[0000000000000000], PCSrc: 0, AluZ:1, EXMEMBranch: 0, OPCode:000
IO[xxxxxxx,1,0] IMEM[    0,0110000100000011] DMEM[    0,    0,    0] ALU[    0] Signals[0,0,26], Debug:[0000000000000000], PCSrc: 0, AluZ:1, EXMEMBranch: 0, OPCode:000
IO[xxxxxxx,1,0] IMEM[    0,0110000100000011] DMEM[    0,    0,    0] ALU[    0] Signals[1,0,27], Debug:[0110000100000011], PCSrc: 0, AluZ:1, EXMEMBranch: 0, OPCode:011
IO[xxxxxxx,1,0] IMEM[    0,0110000100000011] DMEM[    0,    0,    0] ALU[    0] Signals[0,0,28], Debug:[0110000100000011], PCSrc: 0, AluZ:1, EXMEMBranch: 0, OPCode:011
IO[xxxxxxx,1,0] IMEM[    2,0110001010100000] DMEM[    0,    0,    0] ALU[    3] Signals[1,0,29], Debug:[0110000100000011], PCSrc: 0, AluZ:1, EXMEMBranch: 0, OPCode:011
IO[xxxxxxx,1,0] IMEM[    2,0110001010100000] DMEM[    0,    0,    0] ALU[    3] Signals[0,0,30], Debug:[0110000100000011], PCSrc: 0, AluZ:1, EXMEMBranch: 0, OPCode:011
IO[xxxxxxx,1,0] IMEM[    4,1101010100100010] DMEM[    3,    0,    3] ALU[    3] Signals[1,0,31], Debug:[0110001010100000], PCSrc: 0, AluZ:0, EXMEMBranch: 0, OPCode:011
IO[xxxxxxx,1,0] IMEM[    4,1101010100100010] DMEM[    3,    0,    3] ALU[    3] Signals[0,0,32], Debug:[0110001010100000], PCSrc: 0, AluZ:0, EXMEMBranch: 0, OPCode:011
IO[xxxxxxx,1,0] IMEM[    6,1011011000100010] DMEM[    3,    0,    3] ALU[   32] Signals[1,0,33], Debug:[1101010100100010], PCSrc: 0, AluZ:0, EXMEMBranch: 0, OPCode:110
IO[xxxxxxx,1,0] IMEM[    6,1011011000100010] DMEM[    3,    0,    3] ALU[   32] Signals[0,0,34], Debug:[1101010100100010], PCSrc: 0, AluZ:0, EXMEMBranch: 0, OPCode:110
IO[xxxxxxx,1,0] IMEM[    8,0111001000000101] DMEM[   32,    0,   32] ALU[   66] Signals[1,0,35], Debug:[1011011000100010], PCSrc: 0, AluZ:0, EXMEMBranch: 0, OPCode:101
IO[xxxxxxx,1,0] IMEM[    8,0111001000000101] DMEM[   32,    0,   32] ALU[   66] Signals[0,0,36], Debug:[1011011000100010], PCSrc: 0, AluZ:0, EXMEMBranch: 0, OPCode:101
IO[xxxxxxx,1,0] IMEM[   10,1101011000100010] DMEM[   66,    0,    3] ALU[   66] Signals[1,0,37], Debug:[0111001000000101], PCSrc: 0, AluZ:0, EXMEMBranch: 0, OPCode:011
IO[xxxxxxx,1,0] IMEM[   10,1101011000100010] DMEM[   66,    0,    3] ALU[   66] Signals[0,0,38], Debug:[0111001000000101], PCSrc: 0, AluZ:0, EXMEMBranch: 0, OPCode:011
IO[xxxxxxx,1,0] IMEM[   12,1011011000100010] DMEM[   66,    3,    x] ALU[    x] Signals[1,0,39], Debug:[1101011000100010], PCSrc: 0, AluZ:0, EXMEMBranch: 0, OPCode:110
IO[xxxxxxx,1,0] IMEM[   12,1011011000100010] DMEM[   66,    3,    x] ALU[    x] Signals[0,0,40], Debug:[1101011000100010], PCSrc: 0, AluZ:0, EXMEMBranch: 0, OPCode:110
IO[xxxxxxx,1,0] IMEM[   14,0111001000000010] DMEM[    x,    0,    x] ALU[   66] Signals[1,0,41], Debug:[1011011000100010], PCSrc: 0, AluZ:0, EXMEMBranch: 0, OPCode:101
IO[xxxxxxx,1,0] IMEM[   14,0111001000000010] DMEM[    x,    0,    x] ALU[   66] Signals[0,0,42], Debug:[1011011000100010], PCSrc: 0, AluZ:0, EXMEMBranch: 0, OPCode:101
IO[xxxxxxx,1,0] IMEM[   16,0100000001110111] DMEM[   66,    0,    x] ALU[   66] Signals[1,0,43], Debug:[0111001000000010], PCSrc: 0, AluZ:0, EXMEMBranch: 0, OPCode:011
IO[xxxxxxx,1,0] IMEM[   16,0100000001110111] DMEM[   66,    0,    x] ALU[   66] Signals[0,0,44], Debug:[0111001000000010], PCSrc: 0, AluZ:0, EXMEMBranch: 0, OPCode:011
IO[xxxxxxx,1,0] IMEM[   18,0000000000000000] DMEM[   66,    x,    3] ALU[    x] Signals[1,0,45], Debug:[0100000001110111], PCSrc: 0, AluZ:0, EXMEMBranch: 0, OPCode:010
IO[xxxxxxx,1,0] IMEM[   18,0000000000000000] DMEM[   66,    x,    3] ALU[    x] Signals[0,0,46], Debug:[0100000001110111], PCSrc: 0, AluZ:0, EXMEMBranch: 0, OPCode:010
IO[xxxxxxx,1,0] IMEM[   20,0000000000000000] DMEM[    x,    0,    x] ALU[    0] Signals[1,0,47], Debug:[0000000000000000], PCSrc: 0, AluZ:0, EXMEMBranch: 0, OPCode:000
IO[xxxxxxx,1,0] IMEM[   20,0000000000000000] DMEM[    x,    0,    x] ALU[    0] Signals[0,0,48], Debug:[0000000000000000], PCSrc: 0, AluZ:0, EXMEMBranch: 0, OPCode:000
IO[xxxxxxx,1,0] IMEM[   22,0000000000000000] DMEM[    0,    0,    0] ALU[    0] Signals[1,0,49], Debug:[0000000000000000], PCSrc: 1, AluZ:1, EXMEMBranch: 1, OPCode:000
IO[xxxxxxx,1,0] IMEM[   22,0000000000000000] DMEM[    0,    0,    0] ALU[    0] Signals[0,0,50], Debug:[0000000000000000], PCSrc: 1, AluZ:1, EXMEMBranch: 1, OPCode:000
IO[xxxxxxx,1,0] IMEM[    0,0110000100000011] DMEM[    0,    0,    0] ALU[    0] Signals[1,0,51], Debug:[0000000000000000], PCSrc: 0, AluZ:1, EXMEMBranch: 0, OPCode:000
IO[xxxxxxx,1,0] IMEM[    0,0110000100000011] DMEM[    0,    0,    0] ALU[    0] Signals[0,0,52], Debug:[0000000000000000], PCSrc: 0, AluZ:1, EXMEMBranch: 0, OPCode:000
IO[xxxxxxx,1,0] IMEM[    0,0110000100000011] DMEM[    0,    0,    0] ALU[    0] Signals[1,0,53], Debug:[0110000100000011], PCSrc: 0, AluZ:1, EXMEMBranch: 0, OPCode:011
IO[xxxxxxx,1,0] IMEM[    0,0110000100000011] DMEM[    0,    0,    0] ALU[    0] Signals[0,0,54], Debug:[0110000100000011], PCSrc: 0, AluZ:1, EXMEMBranch: 0, OPCode:011
IO[xxxxxxx,1,0] IMEM[    2,0110001010100000] DMEM[    0,    0,    0] ALU[    3] Signals[1,0,55], Debug:[0110000100000011], PCSrc: 0, AluZ:1, EXMEMBranch: 0, OPCode:011
IO[xxxxxxx,1,0] IMEM[    2,0110001010100000] DMEM[    0,    0,    0] ALU[    3] Signals[0,0,56], Debug:[0110000100000011], PCSrc: 0, AluZ:1, EXMEMBranch: 0, OPCode:011
IO[xxxxxxx,1,0] IMEM[    4,1101010100100010] DMEM[    3,    0,    3] ALU[    3] Signals[1,0,57], Debug:[0110001010100000], PCSrc: 0, AluZ:0, EXMEMBranch: 0, OPCode:011
IO[xxxxxxx,1,0] IMEM[    4,1101010100100010] DMEM[    3,    0,    3] ALU[    3] Signals[0,0,58], Debug:[0110001010100000], PCSrc: 0, AluZ:0, EXMEMBranch: 0, OPCode:011
IO[xxxxxxx,1,0] IMEM[    6,1011011000100010] DMEM[    3,    0,    3] ALU[   32] Signals[1,0,59], Debug:[1101010100100010], PCSrc: 0, AluZ:0, EXMEMBranch: 0, OPCode:110
IO[xxxxxxx,1,0] IMEM[    6,1011011000100010] DMEM[    3,    0,    3] ALU[   32] Signals[0,0,60], Debug:[1101010100100010], PCSrc: 0, AluZ:0, EXMEMBranch: 0, OPCode:110
IO[xxxxxxx,1,0] IMEM[    8,0111001000000101] DMEM[   32,    0,   32] ALU[   66] Signals[1,0,61], Debug:[1011011000100010], PCSrc: 0, AluZ:0, EXMEMBranch: 0, OPCode:101
IO[xxxxxxx,1,0] IMEM[    8,0111001000000101] DMEM[   32,    0,   32] ALU[   66] Signals[0,0,62], Debug:[1011011000100010], PCSrc: 0, AluZ:0, EXMEMBranch: 0, OPCode:101
IO[xxxxxxx,1,0] IMEM[   10,1101011000100010] DMEM[   66,    0,    3] ALU[   66] Signals[1,0,63], Debug:[0111001000000101], PCSrc: 0, AluZ:0, EXMEMBranch: 0, OPCode:011
IO[xxxxxxx,1,0] IMEM[   10,1101011000100010] DMEM[   66,    0,    3] ALU[   66] Signals[0,0,64], Debug:[0111001000000101], PCSrc: 0, AluZ:0, EXMEMBranch: 0, OPCode:011
IO[xxxxxxx,1,0] IMEM[   12,1011011000100010] DMEM[   66,    3,    x] ALU[    x] Signals[1,0,65], Debug:[1101011000100010], PCSrc: 0, AluZ:0, EXMEMBranch: 0, OPCode:110
IO[xxxxxxx,1,0] IMEM[   12,1011011000100010] DMEM[   66,    3,    x] ALU[    x] Signals[0,0,66], Debug:[1101011000100010], PCSrc: 0, AluZ:0, EXMEMBranch: 0, OPCode:110
IO[xxxxxxx,1,0] IMEM[   14,0111001000000010] DMEM[    x,    0,    x] ALU[   66] Signals[1,0,67], Debug:[1011011000100010], PCSrc: 0, AluZ:0, EXMEMBranch: 0, OPCode:101
IO[xxxxxxx,1,0] IMEM[   14,0111001000000010] DMEM[    x,    0,    x] ALU[   66] Signals[0,0,68], Debug:[1011011000100010], PCSrc: 0, AluZ:0, EXMEMBranch: 0, OPCode:101
IO[xxxxxxx,1,0] IMEM[   16,0100000001110111] DMEM[   66,    0,    x] ALU[   66] Signals[1,0,69], Debug:[0111001000000010], PCSrc: 0, AluZ:0, EXMEMBranch: 0, OPCode:011
IO[xxxxxxx,1,0] IMEM[   16,0100000001110111] DMEM[   66,    0,    x] ALU[   66] Signals[0,0,70], Debug:[0111001000000010], PCSrc: 0, AluZ:0, EXMEMBranch: 0, OPCode:011
IO[xxxxxxx,1,0] IMEM[   18,0000000000000000] DMEM[   66,    x,    3] ALU[    x] Signals[1,0,71], Debug:[0100000001110111], PCSrc: 0, AluZ:0, EXMEMBranch: 0, OPCode:010
IO[xxxxxxx,1,0] IMEM[   18,0000000000000000] DMEM[   66,    x,    3] ALU[    x] Signals[0,0,72], Debug:[0100000001110111], PCSrc: 0, AluZ:0, EXMEMBranch: 0, OPCode:010
IO[xxxxxxx,1,0] IMEM[   20,0000000000000000] DMEM[    x,    0,    x] ALU[    0] Signals[1,0,73], Debug:[0000000000000000], PCSrc: 0, AluZ:0, EXMEMBranch: 0, OPCode:000
IO[xxxxxxx,1,0] IMEM[   20,0000000000000000] DMEM[    x,    0,    x] ALU[    0] Signals[0,0,74], Debug:[0000000000000000], PCSrc: 0, AluZ:0, EXMEMBranch: 0, OPCode:000
IO[xxxxxxx,1,0] IMEM[   22,0000000000000000] DMEM[    0,    0,    0] ALU[    0] Signals[1,0,75], Debug:[0000000000000000], PCSrc: 1, AluZ:1, EXMEMBranch: 1, OPCode:000
IO[xxxxxxx,1,0] IMEM[   22,0000000000000000] DMEM[    0,    0,    0] ALU[    0] Signals[0,0,76], Debug:[0000000000000000], PCSrc: 1, AluZ:1, EXMEMBranch: 1, OPCode:000
IO[xxxxxxx,1,0] IMEM[    0,0110000100000011] DMEM[    0,    0,    0] ALU[    0] Signals[1,0,77], Debug:[0000000000000000], PCSrc: 0, AluZ:1, EXMEMBranch: 0, OPCode:000
IO[xxxxxxx,1,0] IMEM[    0,0110000100000011] DMEM[    0,    0,    0] ALU[    0] Signals[0,0,78], Debug:[0000000000000000], PCSrc: 0, AluZ:1, EXMEMBranch: 0, OPCode:000
IO[xxxxxxx,1,0] IMEM[    0,0110000100000011] DMEM[    0,    0,    0] ALU[    0] Signals[1,0,79], Debug:[0110000100000011], PCSrc: 0, AluZ:1, EXMEMBranch: 0, OPCode:011
IO[xxxxxxx,1,0] IMEM[    0,0110000100000011] DMEM[    0,    0,    0] ALU[    0] Signals[0,0,80], Debug:[0110000100000011], PCSrc: 0, AluZ:1, EXMEMBranch: 0, OPCode:011
IO[xxxxxxx,1,0] IMEM[    2,0110001010100000] DMEM[    0,    0,    0] ALU[    3] Signals[1,0,81], Debug:[0110000100000011], PCSrc: 0, AluZ:1, EXMEMBranch: 0, OPCode:011
IO[xxxxxxx,1,0] IMEM[    2,0110001010100000] DMEM[    0,    0,    0] ALU[    3] Signals[0,0,82], Debug:[0110000100000011], PCSrc: 0, AluZ:1, EXMEMBranch: 0, OPCode:011
IO[xxxxxxx,1,0] IMEM[    4,1101010100100010] DMEM[    3,    0,    3] ALU[    3] Signals[1,0,83], Debug:[0110001010100000], PCSrc: 0, AluZ:0, EXMEMBranch: 0, OPCode:011
IO[xxxxxxx,1,0] IMEM[    4,1101010100100010] DMEM[    3,    0,    3] ALU[    3] Signals[0,0,84], Debug:[0110001010100000], PCSrc: 0, AluZ:0, EXMEMBranch: 0, OPCode:011
IO[xxxxxxx,1,0] IMEM[    6,1011011000100010] DMEM[    3,    0,    3] ALU[   32] Signals[1,0,85], Debug:[1101010100100010], PCSrc: 0, AluZ:0, EXMEMBranch: 0, OPCode:110
IO[xxxxxxx,1,0] IMEM[    6,1011011000100010] DMEM[    3,    0,    3] ALU[   32] Signals[0,0,86], Debug:[1101010100100010], PCSrc: 0, AluZ:0, EXMEMBranch: 0, OPCode:110
IO[xxxxxxx,1,0] IMEM[    8,0111001000000101] DMEM[   32,    0,   32] ALU[   66] Signals[1,0,87], Debug:[1011011000100010], PCSrc: 0, AluZ:0, EXMEMBranch: 0, OPCode:101
IO[xxxxxxx,1,0] IMEM[    8,0111001000000101] DMEM[   32,    0,   32] ALU[   66] Signals[0,0,88], Debug:[1011011000100010], PCSrc: 0, AluZ:0, EXMEMBranch: 0, OPCode:101
IO[xxxxxxx,1,0] IMEM[   10,1101011000100010] DMEM[   66,    0,    3] ALU[   66] Signals[1,0,89], Debug:[0111001000000101], PCSrc: 0, AluZ:0, EXMEMBranch: 0, OPCode:011
IO[xxxxxxx,1,0] IMEM[   10,1101011000100010] DMEM[   66,    0,    3] ALU[   66] Signals[0,0,90], Debug:[0111001000000101], PCSrc: 0, AluZ:0, EXMEMBranch: 0, OPCode:011
IO[xxxxxxx,1,0] IMEM[   12,1011011000100010] DMEM[   66,    3,    x] ALU[    x] Signals[1,0,91], Debug:[1101011000100010], PCSrc: 0, AluZ:0, EXMEMBranch: 0, OPCode:110
IO[xxxxxxx,1,0] IMEM[   12,1011011000100010] DMEM[   66,    3,    x] ALU[    x] Signals[0,0,92], Debug:[1101011000100010], PCSrc: 0, AluZ:0, EXMEMBranch: 0, OPCode:110
IO[xxxxxxx,1,0] IMEM[   14,0111001000000010] DMEM[    x,    0,    x] ALU[   66] Signals[1,0,93], Debug:[1011011000100010], PCSrc: 0, AluZ:0, EXMEMBranch: 0, OPCode:101
IO[xxxxxxx,1,0] IMEM[   14,0111001000000010] DMEM[    x,    0,    x] ALU[   66] Signals[0,0,94], Debug:[1011011000100010], PCSrc: 0, AluZ:0, EXMEMBranch: 0, OPCode:101
IO[xxxxxxx,1,0] IMEM[   16,0100000001110111] DMEM[   66,    0,    x] ALU[   66] Signals[1,0,95], Debug:[0111001000000010], PCSrc: 0, AluZ:0, EXMEMBranch: 0, OPCode:011
IO[xxxxxxx,1,0] IMEM[   16,0100000001110111] DMEM[   66,    0,    x] ALU[   66] Signals[0,0,96], Debug:[0111001000000010], PCSrc: 0, AluZ:0, EXMEMBranch: 0, OPCode:011
IO[xxxxxxx,1,0] IMEM[   18,0000000000000000] DMEM[   66,    x,    3] ALU[    x] Signals[1,0,97], Debug:[0100000001110111], PCSrc: 0, AluZ:0, EXMEMBranch: 0, OPCode:010
IO[xxxxxxx,1,0] IMEM[   18,0000000000000000] DMEM[   66,    x,    3] ALU[    x] Signals[0,0,98], Debug:[0100000001110111], PCSrc: 0, AluZ:0, EXMEMBranch: 0, OPCode:010
IO[xxxxxxx,1,0] IMEM[   20,0000000000000000] DMEM[    x,    0,    x] ALU[    0] Signals[1,0,99], Debug:[0000000000000000], PCSrc: 0, AluZ:0, EXMEMBranch: 0, OPCode:000
IO[xxxxxxx,1,0] IMEM[   20,0000000000000000] DMEM[    x,    0,    x] ALU[    0] Signals[0,0,100], Debug:[0000000000000000], PCSrc: 0, AluZ:0, EXMEMBranch: 0, OPCode:000
IO[xxxxxxx,1,0] IMEM[   22,0000000000000000] DMEM[    0,    0,    0] ALU[    0] Signals[1,0,101], Debug:[0000000000000000], PCSrc: 1, AluZ:1, EXMEMBranch: 1, OPCode:000
IO[xxxxxxx,0,0] IMEM[   22,0000000000000000] DMEM[    0,    0,    0] ALU[    0] Signals[0,0,102], Debug:[0000000000000000], PCSrc: 1, AluZ:1, EXMEMBranch: 1, OPCode:000
IO[xxxxxxx,0,0] IMEM[    0,0110000100000011] DMEM[    0,    0,    0] ALU[    0] Signals[1,0,103], Debug:[0000000000000000], PCSrc: 0, AluZ:1, EXMEMBranch: 0, OPCode:000
IO[xxxxxxx,0,0] IMEM[    0,0110000100000011] DMEM[    0,    0,    0] ALU[    0] Signals[0,0,104], Debug:[0000000000000000], PCSrc: 0, AluZ:1, EXMEMBranch: 0, OPCode:000
IO[xxxxxxx,0,0] IMEM[    0,0110000100000011] DMEM[    0,    0,    0] ALU[    0] Signals[1,0,105], Debug:[0110000100000011], PCSrc: 0, AluZ:1, EXMEMBranch: 0, OPCode:011
IO[xxxxxxx,0,0] IMEM[    0,0110000100000011] DMEM[    0,    0,    0] ALU[    0] Signals[0,0,106], Debug:[0110000100000011], PCSrc: 0, AluZ:1, EXMEMBranch: 0, OPCode:011
IO[xxxxxxx,0,0] IMEM[    2,0110001010100000] DMEM[    0,    0,    0] ALU[    3] Signals[1,0,107], Debug:[0110000100000011], PCSrc: 0, AluZ:1, EXMEMBranch: 0, OPCode:011
IO[xxxxxxx,0,0] IMEM[    2,0110001010100000] DMEM[    0,    0,    0] ALU[    3] Signals[0,0,108], Debug:[0110000100000011], PCSrc: 0, AluZ:1, EXMEMBranch: 0, OPCode:011
IO[xxxxxxx,0,0] IMEM[    4,1101010100100010] DMEM[    3,    0,    3] ALU[    3] Signals[1,0,109], Debug:[0110001010100000], PCSrc: 0, AluZ:0, EXMEMBranch: 0, OPCode:011
IO[xxxxxxx,0,0] IMEM[    4,1101010100100010] DMEM[    3,    0,    3] ALU[    3] Signals[0,0,110], Debug:[0110001010100000], PCSrc: 0, AluZ:0, EXMEMBranch: 0, OPCode:011
IO[xxxxxxx,0,0] IMEM[    6,1011011000100010] DMEM[    3,    0,    3] ALU[   32] Signals[1,0,111], Debug:[1101010100100010], PCSrc: 0, AluZ:0, EXMEMBranch: 0, OPCode:110
IO[xxxxxxx,0,0] IMEM[    6,1011011000100010] DMEM[    3,    0,    3] ALU[   32] Signals[0,0,112], Debug:[1101010100100010], PCSrc: 0, AluZ:0, EXMEMBranch: 0, OPCode:110
IO[xxxxxxx,0,0] IMEM[    8,0111001000000101] DMEM[   32,    0,   32] ALU[   66] Signals[1,0,113], Debug:[1011011000100010], PCSrc: 0, AluZ:0, EXMEMBranch: 0, OPCode:101
IO[xxxxxxx,0,0] IMEM[    8,0111001000000101] DMEM[   32,    0,   32] ALU[   66] Signals[0,0,114], Debug:[1011011000100010], PCSrc: 0, AluZ:0, EXMEMBranch: 0, OPCode:101
IO[xxxxxxx,0,0] IMEM[   10,1101011000100010] DMEM[   66,    0,    3] ALU[   66] Signals[1,0,115], Debug:[0111001000000101], PCSrc: 0, AluZ:0, EXMEMBranch: 0, OPCode:011
IO[xxxxxxx,0,0] IMEM[   10,1101011000100010] DMEM[   66,    0,    3] ALU[   66] Signals[0,0,116], Debug:[0111001000000101], PCSrc: 0, AluZ:0, EXMEMBranch: 0, OPCode:011
IO[xxxxxxx,0,0] IMEM[   12,1011011000100010] DMEM[   66,    3,    x] ALU[    x] Signals[1,0,117], Debug:[1101011000100010], PCSrc: 0, AluZ:0, EXMEMBranch: 0, OPCode:110
IO[xxxxxxx,0,0] IMEM[   12,1011011000100010] DMEM[   66,    3,    x] ALU[    x] Signals[0,0,118], Debug:[1101011000100010], PCSrc: 0, AluZ:0, EXMEMBranch: 0, OPCode:110
IO[xxxxxxx,0,0] IMEM[   14,0111001000000010] DMEM[    x,    0,    x] ALU[   66] Signals[1,0,119], Debug:[1011011000100010], PCSrc: 0, AluZ:0, EXMEMBranch: 0, OPCode:101
IO[xxxxxxx,0,0] IMEM[   14,0111001000000010] DMEM[    x,    0,    x] ALU[   66] Signals[0,0,120], Debug:[1011011000100010], PCSrc: 0, AluZ:0, EXMEMBranch: 0, OPCode:101
IO[xxxxxxx,0,0] IMEM[   16,0100000001110111] DMEM[   66,    0,    x] ALU[   66] Signals[1,0,121], Debug:[0111001000000010], PCSrc: 0, AluZ:0, EXMEMBranch: 0, OPCode:011
IO[xxxxxxx,0,0] IMEM[   16,0100000001110111] DMEM[   66,    0,    x] ALU[   66] Signals[0,0,122], Debug:[0111001000000010], PCSrc: 0, AluZ:0, EXMEMBranch: 0, OPCode:011
IO[xxxxxxx,0,0] IMEM[   18,0000000000000000] DMEM[   66,    x,    3] ALU[    x] Signals[1,0,123], Debug:[0100000001110111], PCSrc: 0, AluZ:0, EXMEMBranch: 0, OPCode:010
IO[xxxxxxx,0,0] IMEM[   18,0000000000000000] DMEM[   66,    x,    3] ALU[    x] Signals[0,0,124], Debug:[0100000001110111], PCSrc: 0, AluZ:0, EXMEMBranch: 0, OPCode:010
IO[xxxxxxx,0,0] IMEM[   20,0000000000000000] DMEM[    x,    0,    x] ALU[    0] Signals[1,0,125], Debug:[0000000000000000], PCSrc: 0, AluZ:0, EXMEMBranch: 0, OPCode:000
IO[xxxxxxx,0,0] IMEM[   20,0000000000000000] DMEM[    x,    0,    x] ALU[    0] Signals[0,0,126], Debug:[0000000000000000], PCSrc: 0, AluZ:0, EXMEMBranch: 0, OPCode:000
IO[xxxxxxx,0,0] IMEM[   22,0000000000000000] DMEM[    0,    0,    0] ALU[    0] Signals[1,0,127], Debug:[0000000000000000], PCSrc: 1, AluZ:1, EXMEMBranch: 1, OPCode:000
IO[xxxxxxx,0,0] IMEM[   22,0000000000000000] DMEM[    0,    0,    0] ALU[    0] Signals[0,0,128], Debug:[0000000000000000], PCSrc: 1, AluZ:1, EXMEMBranch: 1, OPCode:000
IO[xxxxxxx,0,0] IMEM[    0,0110000100000011] DMEM[    0,    0,    0] ALU[    0] Signals[1,0,129], Debug:[0000000000000000], PCSrc: 0, AluZ:1, EXMEMBranch: 0, OPCode:000
IO[xxxxxxx,0,0] IMEM[    0,0110000100000011] DMEM[    0,    0,    0] ALU[    0] Signals[0,0,130], Debug:[0000000000000000], PCSrc: 0, AluZ:1, EXMEMBranch: 0, OPCode:000
IO[xxxxxxx,0,0] IMEM[    0,0110000100000011] DMEM[    0,    0,    0] ALU[    0] Signals[1,0,131], Debug:[0110000100000011], PCSrc: 0, AluZ:1, EXMEMBranch: 0, OPCode:011
IO[xxxxxxx,0,0] IMEM[    0,0110000100000011] DMEM[    0,    0,    0] ALU[    0] Signals[0,0,132], Debug:[0110000100000011], PCSrc: 0, AluZ:1, EXMEMBranch: 0, OPCode:011
IO[xxxxxxx,0,0] IMEM[    2,0110001010100000] DMEM[    0,    0,    0] ALU[    3] Signals[1,0,133], Debug:[0110000100000011], PCSrc: 0, AluZ:1, EXMEMBranch: 0, OPCode:011
IO[xxxxxxx,0,0] IMEM[    2,0110001010100000] DMEM[    0,    0,    0] ALU[    3] Signals[0,0,134], Debug:[0110000100000011], PCSrc: 0, AluZ:1, EXMEMBranch: 0, OPCode:011
